<?xml version="1.0" encoding="utf-8"?>
<!-- Generator: Adobe Illustrator 20.0.0, SVG Export Plug-In . SVG Version: 6.00 Build 0)  -->
<svg version="1.1" id="Layer_1" xmlns="http://www.w3.org/2000/svg" xmlns:xlink="http://www.w3.org/1999/xlink" x="0px" y="0px"
	 viewBox="0 0 363.6 352.8" style="enable-background:new 0 0 363.6 352.8;" xml:space="preserve">
<style type="text/css">
	.st0{clip-path:url(#SVGID_2_);}
	.st1{fill:#474747;}
</style>
<title>Asset 6</title>
<g id="Layer_2">
	<g id="Layer_1-2">
		<g>
			<defs>
				<rect id="SVGID_1_" x="1.5" y="1.4" width="361" height="350.9"/>
			</defs>
			<clipPath id="SVGID_2_">
				<use xlink:href="#SVGID_1_"  style="overflow:visible;"/>
			</clipPath>
			<g class="st0">
				<path class="st1" d="M290.4,167.8"/>
				<circle class="st1" cx="73.4" cy="83.4" r="4"/>
				<path class="st1" d="M73.4,88.9c-3.1,0-5.5-2.5-5.5-5.5s2.5-5.5,5.5-5.5c3.1,0,5.5,2.5,5.5,5.5C78.9,86.4,76.4,88.9,73.4,88.9z
					 M73.4,80.8c-1.4,0-2.5,1.1-2.5,2.5s1.1,2.5,2.5,2.5s2.5-1.1,2.5-2.5C75.9,82,74.8,80.8,73.4,80.8z"/>
				<circle class="st1" cx="85.1" cy="125.5" r="4"/>
				<path class="st1" d="M85.1,131c-3,0-5.5-2.5-5.5-5.5c0-3,2.5-5.5,5.5-5.5s5.5,2.5,5.5,5.5C90.6,128.5,88.1,131,85.1,131z
					 M85.1,123c-1.4,0-2.5,1.1-2.5,2.5s1.1,2.5,2.5,2.5c1.4,0,2.5-1.1,2.5-2.5S86.5,123,85.1,123L85.1,123z"/>
				<path class="st1" d="M361.5,134.8l-61.3-93.5c-0.4-0.6-1-1.1-1.7-1.5c0,0-86.6-39.6-90.7-38.2l-0.5,0.2c-16.5,5.6-34.5,5.6-51,0
					l-0.5-0.2c-4-1.4-90.7,38.2-90.7,38.2c-0.7,0.3-1.3,0.8-1.7,1.5L2.2,134.8c-1,1.6-0.8,3.7,0.5,5c1,1.1,26,26.2,71.5,36.5
					c1.6,0.4,3.3-0.3,4.2-1.7l11.7-17.9l1.2,180.8c0,1.8,1.3,3.4,3.1,3.9c28.7,6.7,58,10,87.5,10c29.4,0,58.8-3.3,87.5-10
					c1.8-0.4,3.1-2,3.1-3.9l1.2-180.8l11.7,17.9c0.9,1.4,2.6,2.1,4.2,1.7c45.5-10.3,70.5-35.4,71.5-36.5
					C362.3,138.4,362.5,136.3,361.5,134.8z M149.9,9.9c0.6-0.6,1.4-1,2.3-1c0.4,0,0.8,0.1,1.1,0.2l0.5,0.2c18.2,6.1,37.9,6.1,56.1,0
					l0.5-0.2c1.7-0.6,3.6,0.3,4.2,2c0.2,0.7,0.2,1.4,0,2.1c-3.8,12-14.9,18-32.8,18s-28.9-6.1-32.8-18C148.7,12,149,10.7,149.9,9.9z
					 M75.7,163.9l-2.5,3.9c-33.9-8.3-55.7-25.4-62.5-31.5l3-4.6l4.4-6.7l46.2-70.4c1.1,7.3,2.8,17.7,5.1,29c2.5-1.1,5.1-1.6,7.8-1.8
					c-3.3-16-5.3-30-6.1-35.9l58.2-26.2l7.4-3.3l4.5-2c0.1,0.4,0.2,0.9,0.3,1.3c3.4,10.8,13.2,23.6,40.4,23.6s36.9-12.8,40.4-23.6
					c0.1-0.4,0.2-0.9,0.3-1.3l4.5,2l7.4,3.3l58.1,26.2c-0.8,5.6-2.7,18.8-5.7,34c2.7,0.2,5.3,1,7.8,2.1c2.2-10.7,3.8-20.5,4.8-27.4
					l46.2,70.4l4.4,6.7l3,4.6c-6.9,6-28.6,23.2-62.5,31.5l-2.5-3.9l-4.5-6.9l-9-13.7c3.3-5.5,6.1-11.3,8.2-17.4
					c-2.7-0.2-5.3-1-7.7-2.1c-2.1,5.8-4.8,11.3-8.1,16.5c-0.4,0.6-0.8,1.3-1,2.1c-0.1,0.3-0.1,0.6-0.2,0.9l-1.2,191
					c-54.4,12.2-110.8,12.2-165.2,0L98,143.2c0-0.3-0.1-0.6-0.2-0.9c-0.2-0.7-0.6-1.4-1-2.1c-3.1-4.8-5.7-9.9-7.7-15.3
					c-2.3,1.3-4.9,2.2-7.5,2.7c2,5.4,4.6,10.7,7.6,15.6l-9,13.7L75.7,163.9z"/>
				<path class="st1" d="M181.8,352.8c-29.6,0-59-3.4-87.8-10.1c-2.5-0.6-4.2-2.8-4.2-5.3l-1.2-175.8l-9,13.8
					c-1.3,1.9-3.6,2.9-5.8,2.4c-46-10.4-71.2-35.8-72.2-36.9c-1.8-1.9-2.1-4.7-0.7-6.9l61.3-93.5c0.6-0.9,1.4-1.6,2.3-2
					c0.2-0.1,21.9-10,43.8-19.6c44.9-19.7,46.9-19,48-18.6l0.5,0.2c16.2,5.5,33.8,5.5,50,0l0.5-0.2c1.1-0.4,3.1-1,47.9,18.6
					c21.9,9.6,43.6,19.5,43.9,19.7c1,0.4,1.8,1.1,2.3,2l61.3,93.5c1.4,2.2,1.1,5-0.7,6.9c-1,1.1-26.3,26.6-72.2,36.9
					c-2.2,0.5-4.6-0.4-5.8-2.4l-9-13.8l-1.1,175.8c0,2.5-1.8,4.7-4.2,5.3C240.8,349.4,211.4,352.8,181.8,352.8z M91.5,151.6
					l1.2,185.8c0,1.2,0.8,2.2,1.9,2.4c28.6,6.7,57.8,10,87.2,10c29.3,0,58.6-3.3,87.1-10c1.1-0.3,1.9-1.3,1.9-2.4l1.2-185.8
					l14.4,22.1c0.6,0.9,1.6,1.3,2.6,1.1c45.1-10.2,69.7-35,70.8-36.1c0.8-0.8,0.9-2.1,0.3-3.1l-61.3-93.5c-0.3-0.4-0.6-0.7-1.1-0.9
					C265.6,26.4,213,3.1,208.1,3l-0.4,0.1c-16.8,5.7-35.1,5.7-51.9,0L155.5,3C150.6,3.1,98,26.4,65.8,41.1c-0.4,0.2-0.8,0.5-1.1,0.9
					L3.4,135.6c-0.6,1-0.5,2.3,0.3,3.1c1,1.1,25.6,25.9,70.8,36.1c1,0.2,2.1-0.2,2.6-1.1L91.5,151.6z M155.4,3 M208.2,3
					 M181.8,344.8c-27.9,0-55.7-3.1-82.9-9.1l-1.2-0.3l-1.2-192.1c0-0.2,0-0.3-0.1-0.4c-0.2-0.6-0.5-1.2-0.8-1.7
					c-2.9-4.4-5.3-9.1-7.2-14.1c-1.5,0.7-3.1,1.3-4.7,1.7c1.9,4.8,4.1,9.4,6.8,13.7l0.5,0.8l-17.1,26.2l-1-0.2
					c-33.8-8.2-55.4-25-63.1-31.8l-1-0.9l56.5-86.2l0.6,3.9c1,6.5,2.5,16.3,4.7,27.2c1.6-0.5,3.2-0.9,4.9-1.1
					c-3.1-15.6-5.1-29.1-5.8-34.4L69.5,45l72.7-32.8l0.4,1.9c0.1,0.4,0.2,0.8,0.3,1.1c3.3,10.3,12.7,22.5,38.9,22.5
					s35.6-12.2,38.9-22.5c0.1-0.4,0.2-0.8,0.3-1.2l0.4-1.9l72.7,32.8l-0.1,1.2c-0.7,4.9-2.5,17.8-5.4,32.5c1.7,0.3,3.3,0.7,4.9,1.3
					c2-10.3,3.5-19.5,4.4-25.5l0.6-3.9l56.5,86.1l-1,0.9c-7.7,6.8-29.4,23.6-63.1,31.8l-1,0.2l-17.1-26.2l0.5-0.8
					c2.9-4.9,5.4-10,7.4-15.4c-1.6-0.3-3.3-0.7-4.8-1.4c-2,5.4-4.6,10.5-7.7,15.4c-0.4,0.5-0.7,1.1-0.9,1.7c0,0.1-0.1,0.3-0.1,0.4
					l-1.2,192.1l-1.2,0.3C237.5,341.7,209.7,344.8,181.8,344.8z M100.7,333c53.4,11.7,108.8,11.7,162.2,0l1.2-189.7
					c0-0.4,0.1-0.9,0.2-1.3c0.3-0.9,0.7-1.7,1.2-2.5c3.3-5.1,5.9-10.5,8-16.2l0.6-1.5l1.5,0.7c2.3,1.1,4.7,1.8,7.2,2l2,0.2l-0.7,1.8
					c-2.1,5.8-4.7,11.5-7.9,16.9l14.9,22.8c31.2-7.8,51.6-23,59.9-30l-50.8-77.5c-1,6.3-2.4,14.6-4.2,23.6l-0.4,1.9l-1.7-0.8
					c-2.3-1.1-4.7-1.8-7.2-2l-1.7-0.1l0.3-1.6c2.9-14.3,4.7-27,5.5-32.8l-67.4-30.3c-3.7,11.1-13.9,24.3-41.7,24.3
					s-38-13.1-41.7-24.3L72.8,46.8c0.8,6.1,2.8,19.6,5.9,34.7l0.3,1.7l-1.8,0.1c-2.5,0.1-4.9,0.7-7.2,1.6l-1.7,0.7l-0.4-1.8
					c-2-9.6-3.5-18.5-4.5-25.2l-50.8,77.4c8.2,7.1,28.6,22.2,59.8,30l14.9-22.8c-2.8-4.8-5.2-9.8-7.2-15.1l-0.7-1.7l1.8-0.3
					c2.5-0.4,4.8-1.3,7-2.5l1.5-0.8l0.6,1.6c1.9,5.3,4.5,10.3,7.5,15c0.5,0.8,0.9,1.6,1.2,2.5c0.1,0.4,0.2,0.9,0.2,1.3L100.7,333z
					 M181.8,32.7c-18.6,0-30.1-6.4-34.2-19c-0.8-2.5,0.6-5.2,3.1-6c0.4-0.1,0.9-0.2,1.4-0.2c0.5,0,1.1,0.1,1.6,0.3l0.5,0.2
					c17.9,6,37.2,6,55.1,0l0.5-0.2c2.5-0.9,5.2,0.5,6.1,2.9c0.3,1,0.4,2.1,0,3.1C211.9,26.3,200.4,32.7,181.8,32.7z M152.1,10.4
					c-0.5,0-0.9,0.2-1.2,0.5l0,0c-0.5,0.5-0.7,1.2-0.4,1.8c3.6,11.3,14.1,17,31.3,17s27.7-5.7,31.3-17c0.2-0.6,0.1-1.3-0.4-1.8
					c-0.5-0.5-1.2-0.7-1.8-0.4l-0.5,0.2c-18.5,6.2-38.5,6.2-57,0l-0.5-0.2C152.6,10.4,152.4,10.4,152.1,10.4z"/>
				<circle class="st1" cx="290.6" cy="81.6" r="4"/>
				<path class="st1" d="M290.6,87.1c-3.1,0-5.5-2.5-5.5-5.5c0-3.1,2.5-5.5,5.5-5.5c3.1,0,5.5,2.5,5.5,5.5
					C296.1,84.6,293.6,87.1,290.6,87.1z M290.6,79c-1.4,0-2.5,1.1-2.5,2.5c0,1.4,1.1,2.5,2.5,2.5c1.4,0,2.5-1.1,2.5-2.5
					C293.1,80.1,292,79,290.6,79z"/>
				<circle class="st1" cx="279.6" cy="123" r="4"/>
				<path class="st1" d="M279.6,128.5c-3,0-5.5-2.5-5.5-5.5s2.5-5.5,5.5-5.5s5.5,2.5,5.5,5.5C285,126,282.6,128.5,279.6,128.5z
					 M279.6,120.5c-1.4,0-2.5,1.1-2.5,2.5s1.1,2.5,2.5,2.5c1.4,0,2.5-1.1,2.5-2.5C282,121.6,280.9,120.5,279.6,120.5L279.6,120.5z"
					/>
			</g>
		</g>
		<path class="st1" d="M56.8,150.4c-0.7,0-1.5-0.2-2.2-0.5l-22.3-10.7c-0.4-0.2-0.8-0.4-1.1-0.7l-15.5-13.2c-2.2-1.7-2.5-4.9-0.8-7
			s4.9-2.5,7-0.8c0.1,0.1,0.1,0.1,0.2,0.2l15,12.8L59,140.9c2.5,1.2,3.5,4.2,2.4,6.7C60.5,149.3,58.8,150.4,56.8,150.4L56.8,150.4z"
			/>
		<path class="st1" d="M209.7,330.1c-2.8,0.1-5.1-2.1-5.2-4.8s2.1-5.1,4.8-5.2l29.8-2.2l27.1-6.9c2.7-0.7,5.4,0.9,6.1,3.6
			s-0.9,5.4-3.6,6.1c0,0,0,0-0.1,0l-27.5,7c-0.3,0.1-0.6,0.1-0.9,0.1l-30.2,2.2L209.7,330.1z"/>
	</g>
</g>
</svg>
